[PRODUCTCODE]
en-US = "{0FA6115B-EB2C-4878-AE77-A6BB9BD95DE3}"
pt = "{5908E447-DD83-466C-989A-4DD73EEB9E1C}"
ru = "{A2FA035D-6AD1-4A42-8C94-514862DDF9F1}"
el = "{ED03F985-453B-4C05-9D4F-5A5DABC5E383}"
nl = "{3F832B47-935F-45D2-870F-59CBC55EBAF5}"
fr = "{C96C5113-0A94-4D78-8B56-63335845A6DB}"
es = "{00393DC6-C022-4013-85D6-7421431A1BBC}"
fi = "{B2414CEC-4AF1-4943-88F8-C5011A860483}"
hu = "{F09E48BA-14EE-44B2-9B28-2603A18CE1D6}"
ca = "{A398A8FC-7E6B-45D0-9869-63D67B38AEEE}"
it = "{38490E45-A1A0-47CC-971A-F0E4CD27E055}"
cs = "{2288EAF3-AC96-4EE5-BEFB-1384DC1C4703}"
sk = "{79B7F92B-168B-4E9D-8944-4AF49DEB0632}"
en-GB = "{4840BF58-E8E1-4625-9F65-D7A6B26438C7}"
da = "{DBF68601-B962-4B0F-8791-E91225E6AF4E}"
sv = "{D9B02C11-188E-4471-8CD7-FB457264A752}"
no = "{E5694849-306C-4771-8101-521F445918AD}"
pl = "{C640D2B5-97E7-45C9-9FC6-7866BB6C8F5E}"
de = "{5A5DE00E-D6F0-426E-A510-AFCD45564AFB}"
pt-BR = "{A3FFB78D-681B-4EEE-B279-EA638040F82A}"
th = "{4BFE4253-A149-49D1-ACFB-45B780DBE45B}"
et = "{5A742EFB-07B8-42AB-A451-60BBE2461102}"
ja = "{77A4C487-FD10-461F-9F0D-C4DF9FA79C86}"
ko = "{59F981B5-1F49-4B5C-AC14-E7EA635C17F9}"
zh-CN = "{7A31AF55-3974-46E2-B11D-FA6FDFE9576B}"
zh-TW = "{9B4ABC89-CB93-4083-A529-7647D74EBB7D}"
tr = "{B2D2C818-F752-428B-9F42-5093E525AD19}"
hi = "{20765149-8D90-4BF2-9878-54C01A52AA2C}"
ar = "{11EDE09B-CE84-4042-B40D-09F3A9CF7484}"
he = "{CEDA775B-2A1E-45EE-8163-5A7223022389}"
multiwestern = "{7964A534-4526-46AD-8A1B-71BAF6AFE746}"
multiasia = "{180F666D-555D-4F90-A53E-DD861CD9D6F0}"

[UPGRADECODE]
af = "{E5ABA9DC-0B05-49C7-AE79-42621CF9273F}"
ar = "{D6770BC4-9500-4BF9-8137-72AFD7F9366E}"
as-IN = "{539E1B86-87BD-4E73-9B4D-5F3FC1ADA817}"
be = "{375F00E6-C1ED-4131-A5C9-D21E34718781}"
bo = "{0BADD0FD-13B3-4CAB-9ECD-860FBEB09E6C}"
bg = "{6561C433-322A-4EED-B31C-D9CE0F70F182}"
br = "{45188701-42C2-4217-BCC2-5FC4DE740FA1}"
brx = "{B0123EF4-1590-4436-B8C7-45778BCC53C9}"
bn = "{B7A54DFF-DDAE-4BB6-A355-FAF0D4E11952}"
bn-BD = "{300DE45C-94AA-4DA2-9E83-A450DA8FB9AA}"
bn-IN = "{22BA4E19-764F-4D37-8FF0-254DFE566E7E}"
bs = "{944202C0-A80D-413E-A673-3E3CB5078FAB}"
by = "{968FB518-842E-4807-8331-7E20E88A2C89}"
ca = "{89196DBD-4B4D-45EA-89D5-5C57C69E5B16}"
cs = "{A62880EF-F164-4037-BB2A-76FBE37D3BEB}"
cy = "{07219764-70AF-4461-BF24-B89C8F48717F}"
da = "{FFEE4E5F-196A-46A9-A99C-11966D5ECC35}"
de = "{7D03B08A-2F82-4F22-8F2A-C045DFC13566}"
dgo = "{71C0B453-FF1A-4C57-A52D-1322088D3D3F}"
dz = "{5DF8F595-6890-45CD-BD85-234DD7FB5435}"
el = "{5CF9A133-6C59-486F-BB16-BB7AB12826DA}"
en-GB = "{965C704A-7328-4039-A865-914E6091BD38}"
en-US = "{97F3F678-0371-457E-893C-EFD7447A7985}"
en-ZA = "{4ACCB25D-FF84-473F-8AE5-472777DE15AD}"
eo = "{785BAF17-30F1-482D-8419-C3186963A37B}"
es = "{EAE42234-4244-443D-93D8-D99235A80E2D}"
et = "{15FAC7D1-931C-462C-98ED-9151E5BA4E87}"
eu = "{2F192244-3116-42E7-A382-656026BC47F4}"
fa = "{F313287C-222D-4917-8266-FA9E2EE4F204}"
fi = "{22635154-DAF3-4E3C-8280-07F208C1132A}"
fr = "{DBE8EF0B-1BDE-4AFA-B6D1-EB6D39934388}"
ga = "{4AAAD846-9721-496E-A2BF-2E761A00A163}"
gd = "{4E63B45A-AE8A-4189-B74D-DEF23F8DB2D8}"
gl = "{9D6DB52A-986C-4CE9-8494-3156AC40405E}"
gu = "{601D42F5-C928-477A-8FF9-C13116BAF889}"
gu-IN = "{ECF408BB-8554-4566-9230-083B3A61D5ED}"
he = "{9EC0DEF1-601C-4775-9884-B22C347824E1}"
hi = "{518E46AB-6372-4303-A0FD-40AE042D6898}"
hi-IN = "{2E784EF5-2240-4940-ACAC-240860D5B0FF}"
hr = "{7D881D43-F1AA-49CE-83E2-420990672098}"
hu = "{1F70AB81-E96B-414C-AEE1-BD69BAF954CC}"
is = "{27125E19-DCFE-402F-AB8C-82CD9F584D77}"
it = "{6AFA47B1-9285-40CF-A98C-80F9F339A9EE}"
ja = "{B7573A6E-083B-4E1D-8AFF-7003B5401971}"
ky = "{18590BB8-8598-4781-BEDE-4BA660D7DCA3}"
ka = "{6FBAFC4D-EBE8-4880-8644-E87698F5D169}"
kk = "{CDDF1704-0468-4F47-B191-C5D44FF301DA}"
km = "{4F24C267-C4D8-4A60-BEFB-415A4FC12C8B}"
kn = "{3699C099-D492-4206-B4D8-EBAB427432D8}"
ko = "{2501A052-8F1D-4A7F-B4DE-4CB851B1840A}"
kok = "{FB347C9D-7A6E-494B-8FB0-DC6041A927EA}"
ks = "{08E36D6D-6FED-45F0-A87E-D742F9161250}"
ku = "{7A2CA172-09EB-4B2D-96D8-A370084757E1}"
lo = "{31CE78E7-B3BB-48DF-9543-B2DF21F420A7}"
lt = "{E6953E1E-674F-4890-A99B-CBCE09445C13}"
lv = "{27B24D10-F706-4ABD-B1DA-08C569637759}"
mai = "{826EEF83-3FC8-4245-9A8E-0F7CC9F47497}"
mk = "{D2654ED2-5D65-4281-A118-09A3F25914B0}"
mn = "{3355D11E-5906-4226-81FE-1413EA06E88B}"
mni = "{DE13CC7E-1C6E-4CB9-864E-EA87162EFCB2}"
ms = "{6C5A78EF-563A-4B86-A3FA-C6431AA92E98}"
ml-IN = "{8047890F-2CD5-48D2-A73B-50DD2D06A9C8}"
mr-IN = "{95BC02E6-5498-4879-AE16-FFCB9CABE1AE}"
my = "{7002CA01-C610-411C-BD18-FE1E670C1F52}"
ne = "{C89923C9-9061-42D4-B531-60498D929C06}"
nb = "{1BED5361-E88F-4833-B707-B39901731676}"
nl = "{49D204A8-21E6-48C6-9B29-B25AB3D6A137}"
nn = "{23276245-2A01-444F-B878-4BB1B54638C3}"
no = "{05134802-8C30-412A-89DD-CC662D1AB84F}"
nr = "{B156D653-2AB4-4C57-A1A7-F8E50309356A}"
nso = "{8226A004-F62B-45A0-85B0-042687103114}"
om = "{B1A720C2-8B81-492F-8F78-7BC92147AD45}"
oc = "{96392323-8828-42E5-86F4-3CBD2036A609}"
or-IN = "{CF291629-172B-496B-8E86-017EB7392CFC}"
pap = "{4ACBFC0D-A5B6-41FF-AAD1-9856CBDCF057}"
pa-IN = "{DE14FDEF-E87A-4335-94B7-09D8FC30FE56}"
pl = "{C3CFF998-06D1-48B0-925F-8B2CE21105F2}"
ps = "{0C9FF6FF-3539-4C64-8068-E15FA08BA03D}"
pt = "{7A5DEAF9-2687-447F-803D-594E0966A2E1}"
pt-BR = "{4C644036-3E74-44A6-AE94-55D9E7F2C541}"
qtz = "{E16377E5-4C78-4016-A355-8CE512DA85B4}"
ru = "{C1E77DC8-0C1C-4C2D-B67D-581E91C5BEDF}"
rw = "{CF0171A7-E3C2-4120-AF79-90D426D61204}"
sat = "{53951156-6BF5-416F-8CD2-E37A724A3779}"
sa-IN = "{91B68ACD-6E12-4D96-822F-4715B87535CE}"
si = "{43B0FA53-3B78-4920-B264-8D2DDF566B7C}"
sc = "{D163A41F-FB45-4CC4-9644-4818953792EA}"
sd = "{A6C60A32-84E3-4AB9-93DC-CBFFF437DD9B}"
sk = "{E44612CD-1AC0-4D8B-9DBE-EFEAF5A2BC31}"
sl = "{32DDC93C-0B62-42D9-9627-417CC947851A}"
sh = "{5C7E8CBE-6D6D-4DAD-B8DC-D10F85A2B36B}"
sr = "{65233590-D233-4A02-91C3-DF83D00AEDA7}"
ss = "{E4C66A70-4597-4BD2-BDA3-25912A6FD81E}"
st = "{E683C485-4034-4B51-8E4F-D389D1C87B5E}"
sv = "{40FE345C-D3C7-48C4-8CC6-3B21845B9E2C}"
sw = "{15829530-145E-4628-88EB-C2D1EF872A3E}"
sw-TZ = "{BC988E86-1498-411C-978B-9EEA114602A2}"
te-IN = "{3EA81EA3-0AD1-4833-8E27-C42455BA82DD}"
ti-ER = "{1264E7B9-2286-4E43-8F95-E56DF0992E60}"
ta-IN = "{A9DA9C7E-5DAE-419F-A213-A9BE4EFCE9B6}"
th = "{148ACBA8-D6DA-4127-AB23-1787B0178278}"
tn = "{2F8628DE-8765-475F-8265-3E535FBCE8B2}"
tr = "{961A44B0-E927-4823-9BC6-C1E1B665DCC9}"
ts = "{6D364115-17E5-4128-A46A-C48FFCDA7CAB}"
tg = "{BF2D424E-87FE-4E79-B6BD-69ABB39925FF}"
ug = "{AA212944-F6D4-4892-9FCF-F5AB00F48637}"
ur-IN = "{DF853049-BFE4-4021-B072-4DA7128BC80B}"
uk = "{AB349EA3-BBFD-444D-BB7F-E34B51D3C83F}"
uz = "{E50DBC97-9AE2-4D8A-A8A5-9D3FAEE63D9A}"
ve = "{CC948F7B-2223-4CF4-B6DA-589D091E2897}"
vi = "{96E6D257-71C9-4E36-8BCF-01F3E60F42F1}"
xh = "{0B4F6199-8EEE-45B0-B9B9-A80ECBEC5B8D}"
zh-CN = "{85F565F6-4853-4AFD-8CF3-7A57201489C7}"
zh-TW = "{115A4904-16B0-487F-846E-A27588FC28A2}"
zu = "{D83DA940-56D9-4D11-AA20-8E70FD1C549A}"
multiwestern = "{11F95BB5-D403-49A6-B704-C48C26783253}"
multiiasia = "{6874DCF5-E0AC-464A-8002-BD48A76ADDF9}"
