xh      xmlhelp :       comphelper ucbhelper LIBXSLT:libxslt unoil BERKELEYDB:berkeleydb javaunohelper DESKTOP:l10ntools unotools NULL
xh	xmlhelp									usr1	-	all	xh_mkout NULL
xh	xmlhelp\prj					nmake	-	all	xh_prj NULL
