mkdir: %_DEST%\inc\mozilla\nspr
mkdir: %_DEST%\inc\mozilla\nspr\obsolete
mkdir: %_DEST%\inc\mozilla\nspr\private
mkdir: %_DEST%\inc\mozilla\nss
mkdir: %_DEST%\lib\sqlite

..\%__SRC%\inc\include\* %_DEST%\inc\mozilla\nspr
..\%__SRC%\inc\include\obsolete\protypes.h %_DEST%\inc\mozilla\nspr\obsolete\protypes.h
..\%__SRC%\inc\include\private\*.h %_DEST%\inc\mozilla\nspr\private
..\%__SRC%\inc\nss\*.h %_DEST%\inc\mozilla\nss

..\%__SRC%\lib\libfreebl3.* %_DEST%\lib\libfreebl.*
..\%__SRC%\lib\libfreebl_32fpu_3.* %_DEST%\lib\libfreebl_32fpu_3.*
..\%__SRC%\lib\libfreebl_32int64_3.* %_DEST%\lib\libfreebl_32int64_3.*
..\%__SRC%\lib\libfreebl_32int_3.* %_DEST%\lib\libfreebl_32int_3.*
..\%__SRC%\lib\libfreebl_64int_3.* %_DEST%\lib\libfreebl_64int_3.*
..\%__SRC%\lib\libfreebl_64fpu_3.* %_DEST%\lib\libfreebl_64fpu_3.*
..\%__SRC%\lib\libnspr4.* %_DEST%\lib\libnspr4.*
..\%__SRC%\lib\libnss3.* %_DEST%\lib\libnss3.*
..\%__SRC%\lib\libnssckbi.* %_DEST%\lib\libnssckbi.*
..\%__SRC%\lib\libnssdbm3.* %_DEST%\lib\libnssdbm3.*
..\%__SRC%\lib\libnssutil3.* %_DEST%\lib\libnssutil3.*
..\%__SRC%\lib\libplc4.* %_DEST%\lib\libplc4.*
..\%__SRC%\lib\libplds4.* %_DEST%\lib\libplds4.*
..\%__SRC%\lib\libsmime3.* %_DEST%\lib\libsmime3.*
..\%__SRC%\lib\libsoftokn3.* %_DEST%\lib\libsoftokn3.*
..\%__SRC%\lib\libssl3.* %_DEST%\lib\libssl3.*
..\%__SRC%\lib\libcrmf.a %_DEST%\lib\libcrmf.a

..\%__SRC%\lib\libsqlite3.* %_DEST%\lib\sqlite\libsqlite3.*
..\%__SRC%\lib\*.lib %_DEST%\lib

..\%__SRC%\bin\* %_DEST%\bin

